[
  {
    "type": "MOD_INFO",
    "id": "Allow_me_to_switch_to_allies",
    "name": "Allow_me_to_switch_to_allies",
    "authors": [ "Andrey Bienkowski <hexagon-recursion@posteo.net>" ],
    "description": "Allow_me_to_switch_to_allies",
    "category": "content",
    "dependencies": [ "dda" ]
  },
  {
  	"id": "TALK_FRIEND",
  	"type": "talk_topic",
  	"responses": [
  		{
  			"text": "Allow_me_to_switch_to_allies",
  			"effect": "take_control",
  			"topic": "TALK_DONE"
  		}
  	]
  }
]
